<svg xmlns="http://www.w3.org/2000/svg" width="19.962" height="19.961" viewBox="0 0 19.962 19.961">
  <g id="logout_1_" data-name="logout (1)" transform="translate(0 0)">
    <path id="Path" d="M8.525,1.248H.624A.624.624,0,0,1,.624,0h7.9a.624.624,0,0,1,0,1.248Z" transform="translate(10.812 8.109)" fill="#ababab"/>
    <path id="Path-2" data-name="Path" d="M.624,7.487A.624.624,0,0,1,.183,6.421L2.861,3.743.183,1.065A.624.624,0,0,1,1.065.183L4.184,3.3a.624.624,0,0,1,0,.882L1.065,7.3a.62.62,0,0,1-.442.184Z" transform="translate(15.595 4.989)" fill="#ababab"/>
    <path id="Shape" d="M6.138,19.884l-5-1.668A1.678,1.678,0,0,1,0,16.634V1.663A1.665,1.665,0,0,1,1.663,0a1.717,1.717,0,0,1,.516.077L7.185,1.745A1.678,1.678,0,0,1,8.317,3.326V18.3a1.665,1.665,0,0,1-1.663,1.663A1.722,1.722,0,0,1,6.138,19.884Z" transform="translate(0 0)" fill="#ababab"/>
    <path id="Path-3" data-name="Path" d="M11.644,6.654a.624.624,0,0,1-.624-.624V2.287a1.041,1.041,0,0,0-1.04-1.04H.624A.624.624,0,0,1,.624,0H9.981a2.289,2.289,0,0,1,2.287,2.287V6.03A.624.624,0,0,1,11.644,6.654Z" transform="translate(1.04 0)" fill="#ababab"/>
    <path id="Path-4" data-name="Path" d="M3.951,6.654H.624a.624.624,0,0,1,0-1.248H3.951a1.041,1.041,0,0,0,1.04-1.04V.624a.624.624,0,0,1,1.248,0V4.366A2.289,2.289,0,0,1,3.951,6.654Z" transform="translate(7.069 10.812)" fill="#ababab"/>
  </g>
</svg>
