<svg xmlns="http://www.w3.org/2000/svg" width="17.982" height="17.982" viewBox="0 0 17.982 17.982">
  <path id="Shape" d="M15.242,17.982a.527.527,0,0,1,0-1.054h1.686V15.242a.527.527,0,0,1,1.054,0v2.213a.527.527,0,0,1-.527.527Zm-14.716,0A.527.527,0,0,1,0,17.455V15.242a.527.527,0,0,1,1.054,0v1.686H2.74a.527.527,0,0,1,0,1.054Zm13.8-3.056V14.4H12.573a.527.527,0,0,1,0-1.054H14.33v-1.58a.526.526,0,0,1,1.053,0v3.161a.526.526,0,0,1-1.053,0Zm-5.374.526a.526.526,0,0,1,0-1.053H10.01V12.222a.527.527,0,0,1,1.053,0v2.7a.527.527,0,0,1-.526.526Zm-6.111,0a.527.527,0,0,1-.526-.526V12.713a.527.527,0,0,1,.526-.526H5.057a.527.527,0,0,1,.527.526v2.213a.527.527,0,0,1-.527.526Zm3.2-1.651V12.257a.527.527,0,0,1,1.054,0V13.8a.527.527,0,1,1-1.054,0Zm2.283.246a.527.527,0,1,1,0-1.053H8.78a.527.527,0,0,1,0,1.053Zm3.617-1.123a.527.527,0,0,1,0-1.054H12.4a.527.527,0,1,1,0,1.054ZM3.512,11.2V9.623a.51.51,0,0,1,.011-.105H1.071a.526.526,0,1,1,0-1.053H9.2V7.095a.527.527,0,1,1,1.054,0v1.37h3.2V7.446H12.4a.527.527,0,0,1,0-1.054h2.634a.527.527,0,0,1,0,1.054h-.526V8.465h2.406a.526.526,0,0,1,0,1.053H13.276v1.545a.527.527,0,1,1-1.054,0V9.517H10.255v1.124a.527.527,0,0,1-.526.526h-3.3a.527.527,0,1,1,0-1.053H9.2v-.6H4.555a.51.51,0,0,1,.011.105V11.2a.527.527,0,1,1-1.054,0ZM7.656,7.025V6.567a.527.527,0,0,1,1.054,0v.457a.527.527,0,0,1-1.054,0Zm-4.811.386a.527.527,0,1,1,0-1.054h3.9a.527.527,0,0,1,0,1.054Zm7.34-1.58V3.056a.527.527,0,0,1,1.054,0V5.83a.527.527,0,0,1-1.054,0Zm2.74-.035a.527.527,0,0,1-.527-.527V3.056a.527.527,0,0,1,.527-.526h2.212a.527.527,0,0,1,.526.526V5.269a.527.527,0,0,1-.526.527Zm-10.08,0a.527.527,0,0,1-.526-.527V3.056a.527.527,0,0,1,.526-.526H5.057a.527.527,0,0,1,.527.526V5.269a.527.527,0,0,1-.527.527Zm5.409-.984V4.32H7.06v.246a.527.527,0,0,1-1.054,0V3.056a.527.527,0,0,1,1.054,0v.211H8.254V3.056a.526.526,0,1,1,1.053,0V4.811a.527.527,0,1,1-1.053,0ZM16.928,2.74V1.054H15.242a.527.527,0,0,1,0-1.054h2.213a.527.527,0,0,1,.527.526V2.74a.527.527,0,0,1-1.054,0ZM0,2.74V.526A.527.527,0,0,1,.526,0H2.74a.527.527,0,0,1,0,1.054H1.054V2.74A.527.527,0,0,1,0,2.74Z" fill="#fff"/>
</svg>
